{
  "root": "libs/ui/layout",
  "sourceRoot": "libs/ui/layout/src",
  "projectType": "library",
  "tags": [],
  "targets": {
    "build": {
      "executor": "@nrwl/web:rollup",
      "outputs": ["{options.outputPath}"],
      "options": {
        "outputPath": "dist/libs/ui/layout",
        "tsConfig": "libs/ui/layout/tsconfig.lib.json",
        "project": "libs/ui/layout/package.json",
        "entryFile": "libs/ui/layout/src/index.ts",
        "external": ["react/jsx-runtime"],
        "rollupConfig": "@nrwl/react/plugins/bundle-rollup",
        "compiler": "babel",
        "assets": [
          {
            "glob": "libs/ui/layout/README.md",
            "input": ".",
            "output": "."
          }
        ]
      }
    },
    "lint": {
      "executor": "@nrwl/linter:eslint",
      "outputs": ["{options.outputFile}"],
      "options": {
        "lintFilePatterns": ["libs/ui/layout/**/*.{ts,tsx,js,jsx}"]
      }
    },
    "test": {
      "executor": "@nrwl/jest:jest",
      "outputs": ["coverage/libs/ui/layout"],
      "options": {
        "jestConfig": "libs/ui/layout/jest.config.js",
        "passWithNoTests": true
      }
    }
  }
}
